…
popdensity = readr::read_csv(system.file("extdata/popdensity.csv",
                                         package = "spEDM"))
## Rows: 2806 Columns: 7
## ── Column specification ────────────────────────────────────────────────────────────────────────────────
## Delimiter: ","
## dbl (7): x, y, popDensity, DEM, Tem, Pre, slop
## 
## ℹ Use `spec()` to retrieve the full column specification for this data.
## ℹ Specify the column types or set `show_col_types = FALSE` to quiet this message.
popdensity
## # A tibble: 2,806 × 7
##        x     y popDensity   DEM   Tem   Pre  slop
##    <dbl> <dbl>      <dbl> <dbl> <dbl> <dbl> <dbl>
##  1  117.  30.5       780.     8  17.4 1528. 0.452
##  2  117.  30.6       395.    48  17.2 1487. 0.842
##  3  117.  30.8       261.    49  16.0 1456. 3.56 
##  4  116.  30.1       258.    23  17.4 1555. 0.932
##  5  116.  30.5       211.   101  16.3 1494. 3.34 
##  6  117.  31.0       386.    10  16.6 1382. 1.65 
##  7  117.  30.2       350.    23  17.5 1569. 0.346
##  8  117.  30.7       470.    22  17.1 1493. 1.88 
##  9  117.  30.6      1226.    11  17.4 1526. 0.208
## 10  116.  30.9       137.   598  13.9 1458. 5.92 
## # ℹ 2,796 more rows

popd_sf = sf::st_as_sf(popdensity, coords = c("x","y"), crs = 4326)
popd_sf
## Simple feature collection with 2806 features and 5 fields
## Geometry type: POINT
## Dimension:     XY
## Bounding box:  xmin: 74.9055 ymin: 18.2698 xmax: 134.269 ymax: 52.9346
## Geodetic CRS:  WGS 84
## # A tibble: 2,806 × 6
##    popDensity   DEM   Tem   Pre  slop          geometry
##  *      <dbl> <dbl> <dbl> <dbl> <dbl>       <POINT [°]>
##  1       780.     8  17.4 1528. 0.452 (116.912 30.4879)
##  2       395.    48  17.2 1487. 0.842 (116.755 30.5877)
##  3       261.    49  16.0 1456. 3.56  (116.541 30.7548)
##  4       258.    23  17.4 1555. 0.932  (116.241 30.104)
##  5       211.   101  16.3 1494. 3.34   (116.173 30.495)
##  6       386.    10  16.6 1382. 1.65  (116.935 30.9839)
##  7       350.    23  17.5 1569. 0.346 (116.677 30.2412)
##  8       470.    22  17.1 1493. 1.88  (117.066 30.6514)
##  9      1226.    11  17.4 1526. 0.208 (117.171 30.5558)
## 10       137.   598  13.9 1458. 5.92  (116.208 30.8983)
## # ℹ 2,796 more rows
```
…
